<?xml version="1.0" encoding="UTF-8" standalone="no"?>
<!-- Created with Inkscape (http://www.inkscape.org/) -->

<svg
   xmlns:osb="http://www.openswatchbook.org/uri/2009/osb"
   xmlns:dc="http://purl.org/dc/elements/1.1/"
   xmlns:cc="http://creativecommons.org/ns#"
   xmlns:rdf="http://www.w3.org/1999/02/22-rdf-syntax-ns#"
   xmlns:svg="http://www.w3.org/2000/svg"
   xmlns="http://www.w3.org/2000/svg"
   xmlns:xlink="http://www.w3.org/1999/xlink"
   xmlns:sodipodi="http://sodipodi.sourceforge.net/DTD/sodipodi-0.dtd"
   xmlns:inkscape="http://www.inkscape.org/namespaces/inkscape"
   width="25"
   height="25"
   id="svg10621"
   version="1.1"
   inkscape:version="0.92.1 r"
   sodipodi:docname="calendar-today.svg">
  <defs
     id="defs10623">
    <linearGradient
       id="selected_bg_color"
       osb:paint="solid">
      <stop
         style="stop-color:#8A725D;stop-opacity:1;"
         offset="0"
         id="stop4503" />
    </linearGradient>
    <linearGradient
       id="linearGradient4497"
       xlink:href="#linearGradient34508-1-3">
      <stop
         style="stop-color:#5c616c;stop-opacity:1;"
         offset="0"
         id="stop4495" />
    </linearGradient>
    <radialGradient
       inkscape:collect="always"
       xlink:href="#linearGradient34508-1-3"
       id="radialGradient99561-1"
       gradientUnits="userSpaceOnUse"
       gradientTransform="matrix(0.72146227,0,0,0.27484277,14.205424,21.754717)"
       cx="51"
       cy="30"
       fx="51"
       fy="30"
       r="42" />
    <linearGradient
       inkscape:collect="always"
       id="linearGradient34508-1-3">
      <stop
         style=""
         offset="0"
         id="stop34510-1-9" />
      <stop
         style=""
         offset="1"
         id="stop34512-4-5" />
    </linearGradient>
    <radialGradient
       r="42"
       fy="30"
       fx="51"
       cy="30"
       cx="51"
       gradientTransform="matrix(0.72146227,0,0,0.27484277,14.205424,21.754717)"
       gradientUnits="userSpaceOnUse"
       id="radialGradient10592"
       xlink:href="#linearGradient34508-1-3"
       inkscape:collect="always" />
    <radialGradient
       inkscape:collect="always"
       xlink:href="#linearGradient34508-1-3"
       id="radialGradient3770"
       gradientUnits="userSpaceOnUse"
       gradientTransform="matrix(0.72146227,0,0,0.27484277,14.205424,21.754717)"
       cx="51"
       cy="30"
       fx="51"
       fy="30"
       r="42" />
    <radialGradient
       inkscape:collect="always"
       xlink:href="#linearGradient34508-1-3"
       id="radialGradient3001"
       gradientUnits="userSpaceOnUse"
       gradientTransform="matrix(0.72146227,0,0,0.27484277,14.205424,21.754717)"
       cx="51"
       cy="30"
       fx="51"
       fy="30"
       r="42" />
    <radialGradient
       inkscape:collect="always"
       xlink:href="#linearGradient34508-1-3"
       id="radialGradient3007"
       gradientUnits="userSpaceOnUse"
       gradientTransform="matrix(0.72146227,0,0,0.27484277,14.205424,21.754717)"
       cx="51"
       cy="30"
       fx="51"
       fy="30"
       r="42" />
    <radialGradient
       inkscape:collect="always"
       xlink:href="#linearGradient34508-1-3"
       id="radialGradient3067"
       gradientUnits="userSpaceOnUse"
       gradientTransform="matrix(0.72146227,0,0,0.27484277,14.205424,21.754717)"
       cx="51"
       cy="30"
       fx="51"
       fy="30"
       r="42" />
    <radialGradient
       inkscape:collect="always"
       xlink:href="#linearGradient34508-1-3"
       id="radialGradient3072"
       gradientUnits="userSpaceOnUse"
       gradientTransform="matrix(0.72146227,0,0,0.27484277,14.205424,21.754717)"
       cx="51"
       cy="30"
       fx="51"
       fy="30"
       r="42" />
    <radialGradient
       inkscape:collect="always"
       xlink:href="#linearGradient34508-1-3"
       id="radialGradient2997"
       gradientUnits="userSpaceOnUse"
       gradientTransform="matrix(0.72146227,0,0,0.27484277,14.205424,21.754717)"
       cx="51"
       cy="30"
       fx="51"
       fy="30"
       r="42" />
    <linearGradient
       inkscape:collect="always"
       xlink:href="#selected_bg_color"
       id="linearGradient4507"
       x1="481.57138"
       y1="557.9649"
       x2="481.57138"
       y2="560.9649"
       gradientUnits="userSpaceOnUse"
       gradientTransform="translate(0.01127006,-0.971853)" />
  </defs>
  <sodipodi:namedview
     id="base"
     pagecolor="#ffffff"
     bordercolor="#666666"
     borderopacity="1.0"
     inkscape:pageopacity="0"
     inkscape:pageshadow="2"
     inkscape:zoom="8"
     inkscape:cx="-4.7267653"
     inkscape:cy="-0.085292111"
     inkscape:document-units="px"
     inkscape:current-layer="layer1"
     showgrid="true"
     fit-margin-top="0"
     fit-margin-left="0"
     fit-margin-right="0"
     fit-margin-bottom="0"
     inkscape:window-width="2133"
     inkscape:window-height="1241"
     inkscape:window-x="238"
     inkscape:window-y="88"
     inkscape:window-maximized="0"
     borderlayer="true"
     inkscape:showpageshadow="false">
    <inkscape:grid
       type="xygrid"
       id="grid3109"
       empspacing="5"
       visible="true"
       enabled="true"
       snapvisiblegridlinesonly="true" />
  </sodipodi:namedview>
  <metadata
     id="metadata10626">
    <rdf:RDF>
      <cc:Work
         rdf:about="">
        <dc:format>image/svg+xml</dc:format>
        <dc:type
           rdf:resource="http://purl.org/dc/dcmitype/StillImage" />
        <dc:title></dc:title>
      </cc:Work>
    </rdf:RDF>
  </metadata>
  <g
     inkscape:label="Layer 1"
     inkscape:groupmode="layer"
     id="layer1"
     transform="translate(-469.08263,-536.99307)">
    <circle
       style="fill:url(#linearGradient4507);fill-opacity:1"
       id="path7305"
       cx="481.58264"
       cy="558.49304"
       r="1.5" />
  </g>
</svg>
