/* XPM */
static char * maximize_active_xpm[] = {
"22 23 4 1",
" 	c None",
".	c #909090",
"+	c #2F2F2F",
"@	c #0075FD",
"......................",
"++++++++++++++++++++++",
"++++++++++++++++++++++",
"++++++++++++++++++++++",
"++++++++++++++++++++++",
"++++++++++++++++++++++",
"++++++++++++++++++++++",
"++++++@@@@@@@@@+++++++",
"++++++@@@@@@@@@+++++++",
"++++++@@+++++@@+++++++",
"++++++@@+++++@@+++++++",
"++++++@@+++++@@+++++++",
"++++++@@+++++@@+++++++",
"++++++@@+++++@@+++++++",
"++++++@@@@@@@@@+++++++",
"++++++@@@@@@@@@+++++++",
"++++++++++++++++++++++",
"++++++++++++++++++++++",
"++++++++++++++++++++++",
"++++++++++++++++++++++",
"++++++++++++++++++++++",
"++++++++++++++++++++++",
"++++++++++++++++++++++"};
