/* XPM */
static char * maximize_inactive_xpm[] = {
"22 23 4 1",
" 	c None",
".	c #8A2E2E",
"+	c #2F2F2F",
"@	c #999999",
"......................",
"++++++++++++++++++++++",
"++++++++++++++++++++++",
"++++++++++++++++++++++",
"++++++++++++++++++++++",
"++++++++++++++++++++++",
"++++++++++++++++++++++",
"++++++@@@@@@@@@+++++++",
"++++++@@@@@@@@@+++++++",
"++++++@@+++++@@+++++++",
"++++++@@+++++@@+++++++",
"++++++@@+++++@@+++++++",
"++++++@@+++++@@+++++++",
"++++++@@+++++@@+++++++",
"++++++@@@@@@@@@+++++++",
"++++++@@@@@@@@@+++++++",
"++++++++++++++++++++++",
"++++++++++++++++++++++",
"++++++++++++++++++++++",
"++++++++++++++++++++++",
"++++++++++++++++++++++",
"++++++++++++++++++++++",
"++++++++++++++++++++++"};
