/* XPM */
static char * title_1_active_xpm[] = {
"2 25 3 1",
" 	c None",
".	c #909090",
"+	c #2F2F2F",
"..",
"..",
"++",
"++",
"++",
"++",
"++",
"++",
"++",
"++",
"++",
"++",
"++",
"++",
"++",
"++",
"++",
"++",
"++",
"++",
"++",
"++",
"++",
"++",
"++"};
