/* XPM */
static char * top_left_inactive_xpm[] = {
"4 25 3 1",
" 	c None",
".	c #8A2E2E",
"+	c #2F2F2F",
"  ..",
" ...",
"...+",
"..++",
"..++",
"..++",
"..++",
"..++",
"..++",
"..++",
"..++",
"..++",
"..++",
"..++",
"..++",
"..++",
"..++",
"..++",
"..++",
"..++",
"..++",
"..++",
"..++",
"..++",
"..++"};
