<?xml version="1.0" encoding="UTF-8" standalone="no"?>
<!-- Created with Inkscape (http://www.inkscape.org/) -->

<svg
   xmlns:osb="http://www.openswatchbook.org/uri/2009/osb"
   xmlns:dc="http://purl.org/dc/elements/1.1/"
   xmlns:cc="http://creativecommons.org/ns#"
   xmlns:rdf="http://www.w3.org/1999/02/22-rdf-syntax-ns#"
   xmlns:svg="http://www.w3.org/2000/svg"
   xmlns="http://www.w3.org/2000/svg"
   xmlns:xlink="http://www.w3.org/1999/xlink"
   xmlns:sodipodi="http://sodipodi.sourceforge.net/DTD/sodipodi-0.dtd"
   xmlns:inkscape="http://www.inkscape.org/namespaces/inkscape"
   width="50"
   height="20"
   id="svg7539"
   version="1.1"
   inkscape:version="0.91 r13725"
   sodipodi:docname="switch-on-selected.svg">
  <defs
     id="defs7541">
    <linearGradient
       id="selected_fg_color"
       osb:paint="solid">
      <stop
         style="stop-color:#ffffffgit;stop-opacity:1;"
         offset="0"
         id="stop4171" />
    </linearGradient>
    <linearGradient
       id="selected_bg_color"
       osb:paint="solid">
      <stop
         style="stop-color:#775CAC;stop-opacity:1;"
         offset="0"
         id="stop4166" />
    </linearGradient>
    <linearGradient
       id="linearGradient4695-1-4-3-5-0-6">
      <stop
         id="stop4697-9-9-7-0-1-5"
         style="stop-color:#000000;stop-opacity:1;"
         offset="0" />
      <stop
         id="stop4699-5-8-9-0-4-0"
         style="stop-color:#000000;stop-opacity:0"
         offset="1" />
    </linearGradient>
    <linearGradient
       id="linearGradient3768-6">
      <stop
         style="stop-color:#0f0f0f;stop-opacity:1;"
         offset="0"
         id="stop3770-0" />
      <stop
         id="stop3778-6"
         offset="0.078125"
         style="stop-color:#171717;stop-opacity:1;" />
      <stop
         style="stop-color:#171717;stop-opacity:1;"
         offset="0.97355771"
         id="stop3774-2" />
      <stop
         style="stop-color:#1b1b1b;stop-opacity:1;"
         offset="1"
         id="stop3776-2" />
    </linearGradient>
    <linearGradient
       id="linearGradient3969-0-4">
      <stop
         style="stop-color:#353537;stop-opacity:1;"
         offset="0"
         id="stop3971-2-6" />
      <stop
         style="stop-color:#4d4f52;stop-opacity:1;"
         offset="1"
         id="stop3973-0-1" />
    </linearGradient>
    <linearGradient
       id="linearGradient3938">
      <stop
         id="stop3940"
         offset="0"
         style="stop-color:#ffffff;stop-opacity:0;" />
      <stop
         id="stop3942"
         offset="1"
         style="stop-color:#ffffff;stop-opacity:0.54901963;" />
    </linearGradient>
    <linearGradient
       id="linearGradient6523">
      <stop
         id="stop6525"
         offset="0"
         style="stop-color:#1a1a1a;stop-opacity:1;" />
      <stop
         id="stop6527"
         offset="1"
         style="stop-color:#1a1a1a;stop-opacity:0;" />
    </linearGradient>
    <linearGradient
       id="linearGradient3938-6">
      <stop
         id="stop3940-4"
         offset="0"
         style="stop-color:#bebebe;stop-opacity:1;" />
      <stop
         id="stop3942-8"
         offset="1"
         style="stop-color:#ffffff;stop-opacity:1;" />
    </linearGradient>
    <linearGradient
       inkscape:collect="always"
       xlink:href="#selected_bg_color"
       id="linearGradient4168"
       x1="980.04999"
       y1="-456.09485"
       x2="980.04999"
       y2="-454.09487"
       gradientUnits="userSpaceOnUse" />
    <linearGradient
       inkscape:collect="always"
       xlink:href="#selected_bg_color"
       id="linearGradient4170"
       x1="981.54999"
       y1="-462.09485"
       x2="981.54999"
       y2="-454.09487"
       gradientUnits="userSpaceOnUse" />
    <linearGradient
       inkscape:collect="always"
       xlink:href="#selected_bg_color"
       id="linearGradient4172"
       x1="41"
       y1="1032.3622"
       x2="41"
       y2="1050.3622"
       gradientUnits="userSpaceOnUse" />
    <linearGradient
       inkscape:collect="always"
       xlink:href="#selected_fg_color"
       id="linearGradient4173"
       x1="26"
       y1="1031.3622"
       x2="26"
       y2="1051.3622"
       gradientUnits="userSpaceOnUse" />
  </defs>
  <sodipodi:namedview
     id="base"
     pagecolor="#ffffff"
     bordercolor="#666666"
     borderopacity="1.0"
     inkscape:pageopacity="0.0"
     inkscape:pageshadow="2"
     inkscape:zoom="11.666667"
     inkscape:cx="14.042172"
     inkscape:cy="11.702892"
     inkscape:current-layer="layer1"
     showgrid="true"
     inkscape:grid-bbox="true"
     inkscape:document-units="px"
     fit-margin-top="0"
     fit-margin-left="0"
     fit-margin-right="0"
     fit-margin-bottom="0"
     inkscape:window-width="1920"
     inkscape:window-height="1032"
     inkscape:window-x="0"
     inkscape:window-y="23"
     inkscape:window-maximized="1"
     inkscape:snap-bbox="true"
     showguides="true"
     inkscape:guide-bbox="true"
     inkscape:snap-bbox-midpoints="false"
     inkscape:bbox-paths="true"
     inkscape:bbox-nodes="true"
     inkscape:snap-bbox-edge-midpoints="true">
    <inkscape:grid
       type="xygrid"
       id="grid3019"
       empspacing="5"
       visible="true"
       enabled="true"
       snapvisiblegridlinesonly="true"
       originx="-4"
       originy="2.6171874e-06" />
  </sodipodi:namedview>
  <metadata
     id="metadata7544">
    <rdf:RDF>
      <cc:Work
         rdf:about="">
        <dc:format>image/svg+xml</dc:format>
        <dc:type
           rdf:resource="http://purl.org/dc/dcmitype/StillImage" />
        <dc:title />
      </cc:Work>
    </rdf:RDF>
  </metadata>
  <g
     id="layer1"
     inkscape:label="Layer 1"
     inkscape:groupmode="layer"
     transform="translate(-120,87.999997)">
    <g
       transform="translate(-886,-448)"
       style="display:inline;opacity:1"
       id="switch-active-selected"
       inkscape:label="#g4829">
      <g
         id="layer1-9-0-0"
         inkscape:label="Layer 1"
         transform="translate(885,450)"
         style="display:inline;opacity:1">
        <g
           style="display:inline"
           transform="translate(120,-116.99998)"
           inkscape:label="Layer 1"
           id="switch-active-8-4">
          <g
             id="g3900-1-87-6"
             transform="translate(0,-1004.3622)">
            <rect
               style="display:inline;opacity:0;fill:#434343;fill-opacity:1;stroke:none;stroke-width:1;stroke-linecap:butt;stroke-linejoin:miter;stroke-miterlimit:4;stroke-dasharray:none;stroke-dashoffset:0;stroke-opacity:1"
               id="rect5465-3-3-6"
               width="52"
               height="24"
               x="0"
               y="1029.3622" />
            <rect
               style="fill:url(#linearGradient4173);fill-opacity:1;fill-rule:nonzero;stroke:none"
               id="rect2987-0-8-4"
               width="50"
               height="20"
               x="1"
               y="1031.3622"
               ry="11"
               rx="11" />
            <circle
               style="fill:url(#linearGradient4172);fill-opacity:1;fill-rule:nonzero;stroke:none"
               id="path3759-0-7"
               cx="41"
               cy="1041.3622"
               r="9" />
          </g>
        </g>
      </g>
      <g
         transform="translate(-1.0003162,0)"
         id="g4816-0">
        <rect
           transform="matrix(0.70710678,0.70710678,-0.70710678,0.70710678,0,0)"
           ry="0.66666085"
           rx="0.66666085"
           y="-456.09485"
           x="977.54999"
           height="1.9999826"
           width="5"
           id="rect3977-39-2-1"
           style="display:inline;opacity:1;fill:url(#linearGradient4168);fill-opacity:1;stroke:none" />
        <rect
           transform="matrix(0.70710678,0.70710678,-0.70710678,0.70710678,0,0)"
           ry="0"
           y="-462.09485"
           x="980.54999"
           height="7.9999828"
           width="2"
           id="rect3979-7-0-8"
           style="display:inline;opacity:1;fill:url(#linearGradient4170);fill-opacity:1;stroke:none" />
      </g>
    </g>
  </g>
</svg>
