<?xml version="1.0" encoding="UTF-8" standalone="no"?>
<!-- Created with Inkscape (http://www.inkscape.org/) -->

<svg
   xmlns:osb="http://www.openswatchbook.org/uri/2009/osb"
   xmlns:dc="http://purl.org/dc/elements/1.1/"
   xmlns:cc="http://creativecommons.org/ns#"
   xmlns:rdf="http://www.w3.org/1999/02/22-rdf-syntax-ns#"
   xmlns:svg="http://www.w3.org/2000/svg"
   xmlns="http://www.w3.org/2000/svg"
   xmlns:xlink="http://www.w3.org/1999/xlink"
   xmlns:sodipodi="http://sodipodi.sourceforge.net/DTD/sodipodi-0.dtd"
   xmlns:inkscape="http://www.inkscape.org/namespaces/inkscape"
   width="16"
   height="16"
   id="svg12430"
   version="1.1"
   inkscape:version="0.91 r13725"
   sodipodi:docname="more-results.svg">
  <defs
     id="defs12432">
    <linearGradient
       id="selected_fg_color"
       osb:paint="solid">
      <stop
         style="stop-color:#ffffffgit;stop-opacity:1;"
         offset="0"
         id="stop4150" />
    </linearGradient>
    <linearGradient
       id="selected_bg_color"
       osb:paint="solid">
      <stop
         style="stop-color:#4F63A4;stop-opacity:1;"
         offset="0"
         id="stop4147" />
    </linearGradient>
    <linearGradient
       inkscape:collect="always"
       xlink:href="#selected_bg_color"
       id="linearGradient4149"
       x1="149.99985"
       y1="397.99106"
       x2="149.99985"
       y2="413.99105"
       gradientUnits="userSpaceOnUse" />
    <linearGradient
       inkscape:collect="always"
       xlink:href="#selected_fg_color"
       id="linearGradient4152"
       x1="149.99984"
       y1="401.99107"
       x2="149.99984"
       y2="409.99107"
       gradientUnits="userSpaceOnUse" />
  </defs>
  <sodipodi:namedview
     id="base"
     pagecolor="#7a7a7a"
     bordercolor="#666666"
     borderopacity="1.0"
     inkscape:pageopacity="1"
     inkscape:pageshadow="2"
     inkscape:zoom="22.627417"
     inkscape:cx="7.9593425"
     inkscape:cy="9.811453"
     inkscape:document-units="px"
     inkscape:current-layer="g14642-3-0"
     showgrid="true"
     borderlayer="true"
     inkscape:showpageshadow="false"
     inkscape:window-width="1920"
     inkscape:window-height="1035"
     inkscape:window-x="0"
     inkscape:window-y="23"
     inkscape:window-maximized="1"
     inkscape:snap-bbox="true"
     inkscape:bbox-paths="true"
     inkscape:bbox-nodes="true"
     inkscape:snap-bbox-edge-midpoints="true"
     inkscape:snap-nodes="true"
     inkscape:object-paths="true"
     inkscape:snap-intersection-paths="true"
     inkscape:object-nodes="true">
    <inkscape:grid
       type="xygrid"
       id="grid13002" />
  </sodipodi:namedview>
  <metadata
     id="metadata12435">
    <rdf:RDF>
      <cc:Work
         rdf:about="">
        <dc:format>image/svg+xml</dc:format>
        <dc:type
           rdf:resource="http://purl.org/dc/dcmitype/StillImage" />
        <dc:title />
      </cc:Work>
    </rdf:RDF>
  </metadata>
  <g
     inkscape:label="Layer 1"
     inkscape:groupmode="layer"
     id="layer1"
     transform="translate(0,-1036.3622)">
    <g
       style="display:inline"
       transform="translate(-141.99984,638.37113)"
       inkscape:label="zoom-in"
       id="g14642-3-0">
      <ellipse
         style="opacity:1;fill:url(#linearGradient4149);fill-opacity:1;stroke:none;stroke-width:1;stroke-linecap:butt;stroke-linejoin:miter;stroke-miterlimit:4;stroke-dasharray:none;stroke-dashoffset:0;stroke-opacity:1"
         id="path4156"
         cx="149.99985"
         cy="405.99106"
         rx="8.0000029"
         ry="7.9999957" />
      <rect
         style="fill:none;stroke:none"
         id="rect3620-5-4"
         width="15.981825"
         height="16"
         x="142"
         y="398"
         rx="0"
         ry="0" />
      <g
         id="g4179"
         transform="translate(141.99985,397.99107)">
        <g
           style="opacity:0.55;fill:#000000;fill-opacity:1"
           transform="matrix(0.765075,0,0,0.765075,1.8805941,0.87981267)"
           id="g2996-1">
          <g
             style="fill:#000000;fill-opacity:1"
             transform="translate(-60,-518)"
             id="layer12-1">
            <g
               transform="translate(19,-242)"
               id="layer4-4-1-9"
               style="display:inline;fill:#000000;fill-opacity:1" />
          </g>
        </g>
        <g
           style="fill:#ffffff;fill-opacity:1"
           transform="matrix(0.765075,0,0,0.765075,1.8805941,1.8794795)"
           id="g2996">
          <g
             style="fill:#ffffff;fill-opacity:1"
             transform="translate(-60,-518)"
             id="layer12">
            <g
               transform="translate(19,-242)"
               id="layer4-4-1"
               style="display:inline;fill:#ffffff;fill-opacity:1" />
          </g>
        </g>
      </g>
      <path
         style="fill:url(#linearGradient4152);fill-opacity:1;fill-rule:evenodd;stroke:#000000;stroke-width:0;stroke-linecap:butt;stroke-linejoin:miter;stroke-miterlimit:4;stroke-opacity:1"
         d="m 148.99984,401.99107 0,3 -3,0 0,2 3,0 0,3 2,0 0,-3 3,0 0,-2 -3,0 0,-3 z"
         id="rect3757"
         inkscape:connector-curvature="0"
         sodipodi:nodetypes="ccccccccccccc" />
    </g>
  </g>
</svg>
